<svg width="24" height="25" viewBox="0 0 24 25" fill="none" xmlns="http://www.w3.org/2000/svg">
<path d="M11.9988 13.6694C8.82878 13.6694 6.24878 11.0894 6.24878 7.91943C6.24878 4.74943 8.82878 2.16943 11.9988 2.16943C15.1688 2.16943 17.7488 4.74943 17.7488 7.91943C17.7488 11.0894 15.1688 13.6694 11.9988 13.6694ZM11.9988 3.66943C9.65878 3.66943 7.74878 5.57943 7.74878 7.91943C7.74878 10.2594 9.65878 12.1694 11.9988 12.1694C14.3388 12.1694 16.2488 10.2594 16.2488 7.91943C16.2488 5.57943 14.3388 3.66943 11.9988 3.66943Z" fill="#5D5FEF"/>
<path d="M20.5889 23.6694C20.1789 23.6694 19.8389 23.3294 19.8389 22.9194C19.8389 19.4694 16.3189 16.6694 11.9989 16.6694C7.67893 16.6694 4.15894 19.4694 4.15894 22.9194C4.15894 23.3294 3.81894 23.6694 3.40894 23.6694C2.99894 23.6694 2.65894 23.3294 2.65894 22.9194C2.65894 18.6494 6.84893 15.1694 11.9989 15.1694C17.1489 15.1694 21.3389 18.6494 21.3389 22.9194C21.3389 23.3294 20.9989 23.6694 20.5889 23.6694Z" fill="#5D5FEF"/>
</svg>
